I
function init(robot) {
	console.log("buna dimineata s-a trezit dulceata");
}

function loop(robot) {
	robot.move(40);
}

II
function init(robot) {
	console.log("buna dimineata s-a trezit dulceata");
}

function loop(robot) {
	robot.action={type:'move' , value:40};
}




III
function init(robot) {
	robot.ok= true;
}

function loop(robot) {
	if (robot.ok) {
		robot.action = {type: 'jump', amount: 10};
		robot.ok = false;
	} else {
		robot.action = {type: 'move', amount: 40};
		robot.ok = true;
	}
}


IV

function init(robot) {
    robot.count = 0;
}

function loop(robot) {
   if (robot.count!=8) {
		robot.action = {type: 'move', amount: 40};
		robot.count +=1;
   }
	   if (robot.count===8)
		   {
			 robot.action = {type: 'jump', amount: 10};
		robot.count +=1;  
		   }
}


V.
function init(robot) {
	robot.count=0;
	console.log(robot.info());
}

function loop(robot) {
	robot.count++;
	console.log(robot.count);
	if(robot.count==8||robot.count==13)robot.jump(10);
	else robot.move(40);
}

VI
function init(robot) {
	robot.directie=1;
	robot.count=0;
	
}

function loop(robot) {
	robot.count++
	robot.move(robot.directie*40);
	console.log(robot.count);
	if(robot.count%40===0)robot.directie*=-1;
}

VII
function init(robot) {
	robot.directie=1;
	robot.count=0;
	robot.ok=1;
	robot.sari=20;
	
}

function loop(robot) {
	robot.count++
	robot.move(robot.directie*40);
	console.log(robot.count);
	if(robot.ok&&robot.count==4){robot.jump(10); robot.ok=0}
	if(robot.count===robot.sari){robot.jump(10);robot.sari+=14;}
}

VIII
function init(robot) {
	// your code goes here
}

function loop(robot) {
	robot.jump(10)
}

IX
function init(robot) {
	robot.put=10;
	robot.ok=1;
	robot.y=robot.info().y
	console.log(robot.info().y);
}

function loop(robot) {
	robot.y=robot.info().y;
	if(robot.y<350)
	{
		if(robot.ok){
			robot.move(33);
			robot.ok=0;
		}else{
		robot.jump(robot.put)
			robot.put=0;
			}
	}
	if(robot.y>350){ 
		console.log("tataoa are coaie")
		robot.move(40)
	}
}

X
function init(robot) {
	console.log("caca");
	robot.x=robot.info().x;
	robot.y=robot.info().y;
	robot.sezy=205;
}
function loop(robot) {
	robot.x=robot.info().x;
	robot.y=robot.info().y;
	if(robot.y<82){robot.jump(10); robot.sezy+=320};
	else if(robot.x!=robot.sezy)robot.move(40);
}








// New Fileif(ok===1)
		{
			robot.move(10);
			ok=0;
			 console.log("mama")
		}else{
			robot.jump(10);
			ok=1;
			 console.log("tata")
		}